<svg version="1.1" xmlns="http://www.w3.org/2000/svg" viewBox="0 0 724.1745123073459 270.9195791298191" width="724.1745123073459" height="270.9195791298191">
  <!-- svg-source:excalidraw -->
  
  <defs>
    <style>
      @font-face {
        font-family: "Virgil";
        src: url("https://excalidraw.com/Virgil.woff2");
      }
      @font-face {
        font-family: "Cascadia";
        src: url("https://excalidraw.com/Cascadia.woff2");
      }
    </style>
  </defs>
  <g stroke-linecap="round" transform="translate(14.102025973477453 10) rotate(0 348.57142857142867 124.28571428571428)"><path d="M-0.65 -0.15 C240.55 2.08, 479.1 1.59, 697.89 -0.41 M-0.64 0.51 C142.59 0.03, 284.53 -0.25, 696.84 0.47 M700.19 1.8 C699.13 77.26, 699.65 154.36, 699.09 250.87 M698.37 -0.87 C697.77 62.26, 695.42 124.11, 697.31 248.1 M698.35 248.37 C465.45 249.28, 237.69 248.96, 1.44 248.82 M696.75 248.75 C533.6 254.68, 369.36 253.65, -0.11 248.59 M0.91 249.49 C-2.37 183.53, -4.69 121.18, -1.93 -0.82 M1.27 248.11 C-4.78 193.19, -4.03 137.62, -0.13 -1.59" stroke="#000000" stroke-width="1" fill="none"></path></g><g stroke-linecap="round"><g transform="translate(151.24488311633456 10) rotate(0 -0.6381235588550567 125.22462737898742)"><path d="M1.24 1.64 C1.63 42.84, 0.32 205.96, 0.28 246.64 M-1.53 0.06 C-1.44 41.81, -2.66 208.99, -2.59 250.39" stroke="#000000" stroke-width="1" fill="none"></path></g></g><g stroke-linecap="round"><g transform="translate(11.24488311633462 84.28571428571422) rotate(0 350.84237303733835 0.9300873098728459)"><path d="M-1.24 1.85 C114.84 2.17, 580.56 3.34, 697.75 3.19 M3.27 0.38 C120.11 -0.28, 586.62 -1.75, 702.93 -1.25" stroke="#000000" stroke-width="1" fill="none"></path></g></g><g transform="translate(67.67345454490612 34.571428571428555) rotate(0 6 12.5)"><text x="0" y="18" font-family="Virgil, Segoe UI Emoji" font-size="20px" fill="#000000" text-anchor="start" style="white-space: pre;" direction="ltr">X</text></g><g transform="translate(61.95916883062034 156) rotate(0 19.5 12.5)"><text x="0" y="18" font-family="Virgil, Segoe UI Emoji" font-size="20px" fill="#000000" text-anchor="start" style="white-space: pre;" direction="ltr">F(X)</text></g><g stroke-linecap="round"><g transform="translate(181.5663921027044 48.78755210218071) rotate(0 7.562388591800357 -0.0735294117647527)"><path d="M0 0 C2.52 -0.02, 12.6 -0.12, 15.12 -0.15 M0 0 C2.52 -0.02, 12.6 -0.12, 15.12 -0.15" stroke="#000000" stroke-width="2" fill="none"></path></g></g><g stroke-linecap="round"><g transform="translate(623.7985956058432 50.18484664309659) rotate(0 11.526110971459843 -0.05262316318109583)"><path d="M-1.1 0.38 C3.05 0.4, 19.97 0.97, 24.16 0.68 M0.52 -0.46 C4.56 -0.8, 19.35 -0.85, 23.11 -0.86" stroke="#000000" stroke-width="2" fill="none"></path></g></g><g stroke-linecap="round"><g transform="translate(634.6681608232346 36.27180316483572) rotate(0 1.1051867502384312 12.937181921153211)"><path d="M-0.4 -0.58 C-0.27 3.38, 0.03 20.83, 0.17 24.87 M1.59 1.72 C2.17 6.41, 2.87 22.67, 2.51 26.46" stroke="#000000" stroke-width="2" fill="none"></path></g></g><g stroke-linecap="round"><g transform="translate(187.75406852727758 173.51068842145554) rotate(0 28.855540708994454 0.305043683222749)"><path d="M0.57 -0.93 C10.46 -0.68, 48.99 -0.14, 58.29 0.35 M-0.58 1.19 C9.31 1.67, 47.93 1.58, 57.82 1.39" stroke="#000000" stroke-width="2" fill="none"></path></g></g><g stroke-linecap="round"><g transform="translate(472.7540685272776 176.36783127859832) rotate(0 28.54431563794799 0.7569634185047391)"><path d="M1.11 -0.23 C10.52 -0.12, 47.56 1.23, 56.85 1.35 M0.24 -1.4 C9.4 -1.14, 46.35 2.45, 55.62 2.91" stroke="#000000" stroke-width="2" fill="none"></path></g></g><g stroke-linecap="round"><g transform="translate(301.32549709870614 143.69702382518227) rotate(0 1.0113336873766912 32.617509876909736)"><path d="M-0.27 -0.58 C0.13 10.24, 1.99 53.65, 2.29 64.6 M1.79 1.73 C2.13 12.73, 2.02 55.04, 1.86 65.82" stroke="#c92a2a" stroke-width="2" fill="none"></path></g></g><g stroke-linecap="round"><g transform="translate(589.8969256701347 145.12559525375372) rotate(0 0.7854816360879795 32.874999312880504)"><path d="M0.62 -0.9 C0.8 9.86, 2.03 53.94, 2.09 65.15 M-0.52 1.24 C-0.51 12.16, 1.45 56.09, 1.55 66.65" stroke="#c92a2a" stroke-width="2" fill="none"></path></g></g><g stroke-linecap="round"><g transform="translate(274.8037579682715 174.47342134071033) rotate(0 31.69867357004324 -1.6037706437642498)"><path d="M0.89 -0.19 C11.09 -0.71, 51.08 -2.46, 61.11 -3.02 M-0.1 -1.34 C10.5 -1.69, 53.49 -1.47, 63.5 -1.69" stroke="#c92a2a" stroke-width="2" fill="none"></path></g></g><g stroke-linecap="round"><g transform="translate(563.3751865397002 175.90199276928178) rotate(0 30.385403666839693 -1.0665545049245395)"><path d="M-0.9 0.78 C9.29 0.19, 51.04 -2.4, 61.67 -2.92 M0.83 0.15 C10.8 -0.32, 50.38 -1.37, 60.69 -1.54" stroke="#c92a2a" stroke-width="2" fill="none"></path></g></g><g stroke-linecap="round"><g transform="translate(425.3938200800727 86.026216371766) rotate(0 -0.2978474626158345 88.1851320728872)"><path d="M-0.47 2.56 C-0.52 30.89, -1.86 143.32, -1.58 172.33 M-4.18 1.48 C-3.24 29.91, 2.93 146.42, 3.58 174.89" stroke="#000000" stroke-width="2" fill="none"></path></g></g><g transform="translate(395.0824647687175 29.404116249665776) rotate(0 9.974358974359006 20.779914529914606)"><text x="0" y="29.559829059829198" font-family="Virgil, Segoe UI Emoji" font-size="33.24786324786334px" fill="#000000" text-anchor="start" style="white-space: pre;" direction="ltr">X</text></g><g transform="translate(418.61726330351587 52.99691234246194) rotate(0 6 10)"><text x="0" y="14" font-family="Virgil, Segoe UI Emoji" font-size="16px" fill="#000000" text-anchor="start" style="white-space: pre;" direction="ltr">0</text></g><g transform="translate(207.04365275242628 24.01810713380121) rotate(90.56170533256655 12.209457097495829 24.418914194991714)"><text x="0" y="38.83782838998343" font-family="Cascadia, Segoe UI Emoji" font-size="40.69819032498616px" fill="#000000" text-anchor="start" style="white-space: pre;" direction="ltr">8</text></g><g transform="translate(661.7103194190928 24.684773800467724) rotate(90.56170533256655 12.209457097495829 24.418914194991714)"><text x="0" y="38.83782838998343" font-family="Cascadia, Segoe UI Emoji" font-size="40.69819032498616px" fill="#000000" text-anchor="start" style="white-space: pre;" direction="ltr">8</text></g></svg>